{
    "results": [
        {
            "payment_provider_id": "sub_7db99fcf-2969-4c8c-909d-0028fb9bfd20",
            "amount": 3248,
            "card_brand": "visa",
            "created": "2023-01-21T22:17:31Z",
            "credit_card_expiration_date": "04/2028",
            "interval": "month",
            "is_cancelable": true,
            "is_modifiable": true,
            "last_payment_date": "2023-01-21T22:17:31Z",
            "last4": "5594",
            "next_payment_date": "2023-02-20T22:17:31Z",
            "payment_type": "credit_card",
            "provider_customer_id": "cus_b43ec99a-5b0d-452c-bd6e-9931f5389f7b",
            "revenue_program": 1,
            "status": "paid"
        },
        {
            "payment_provider_id": "sub_37265305-51b0-453b-8082-6115e69cb7f3",
            "amount": 2302,
            "card_brand": "visa",
            "created": "2023-08-23T12:17:19Z",
            "credit_card_expiration_date": "12/2024",
            "interval": "year",
            "is_cancelable": true,
            "is_modifiable": true,
            "last_payment_date": "2023-08-23T12:17:19Z",
            "last4": "0141",
            "next_payment_date": "2024-08-22T12:17:19Z",
            "payment_type": "credit_card",
            "provider_customer_id": "cus_8e2e9161-e223-4587-b98d-af020c3a192c",
            "revenue_program": 1,
            "status": "paid"
        },
        {
            "payment_provider_id": "pi_a74a9833-c5aa-4bdd-8d91-92ca730b2707",
            "amount": 2770,
            "card_brand": "visa",
            "created": "2023-02-20T00:15:59Z",
            "credit_card_expiration_date": "09/2027",
            "interval": "one_time",
            "is_cancelable": false,
            "is_modifiable": false,
            "last_payment_date": "2023-02-20T00:15:59Z",
            "last4": "4118",
            "next_payment_date": null,
            "payment_type": "credit_card",
            "provider_customer_id": "cus_67f8597c-e26c-4a11-874d-d92e846b38d0",
            "revenue_program": 1,
            "status": "paid"
        },
        {
            "payment_provider_id": "sub_3177e680-107f-4023-bc4e-4f07a582d922",
            "amount": 5469,
            "card_brand": "visa",
            "created": "2023-01-08T17:06:25Z",
            "credit_card_expiration_date": "02/2026",
            "interval": "month",
            "is_cancelable": true,
            "is_modifiable": true,
            "last_payment_date": "2023-01-08T17:06:25Z",
            "last4": "3727",
            "next_payment_date": "2023-02-07T17:06:25Z",
            "payment_type": "credit_card",
            "provider_customer_id": "cus_f304a615-ffdc-40cd-98b5-7876c2f6c4a1",
            "revenue_program": 1,
            "status": "paid"
        },
        {
            "payment_provider_id": "sub_8a47352d-ea9d-4344-a4a6-47856bc5ee3b",
            "amount": 1741,
            "card_brand": "visa",
            "created": "2023-10-02T11:26:05Z",
            "credit_card_expiration_date": "10/2029",
            "interval": "month",
            "is_cancelable": true,
            "is_modifiable": true,
            "last_payment_date": "2023-10-02T11:26:05Z",
            "last4": "7147",
            "next_payment_date": "2023-11-01T11:26:05Z",
            "payment_type": "credit_card",
            "provider_customer_id": "cus_2530a4f4-c9c6-44da-bddb-12b2be20913d",
            "revenue_program": 1,
            "status": "paid"
        },
        {
            "payment_provider_id": "sub_c4d5fe3e-1769-42dd-90b5-aa6f589a6917",
            "amount": 3272,
            "card_brand": "mastercard",
            "created": "2023-07-14T08:28:12Z",
            "credit_card_expiration_date": "11/2027",
            "interval": "year",
            "is_cancelable": false,
            "is_modifiable": false,
            "last_payment_date": "2023-07-14T08:28:12Z",
            "last4": "4962",
            "next_payment_date": null,
            "payment_type": "credit_card",
            "provider_customer_id": "cus_974f4808-6695-4ce7-b9dc-2f18dfa8cebb",
            "revenue_program": 1,
            "status": "canceled"
        },
        {
            "payment_provider_id": "sub_51abf77a-91c2-4cb8-bb3f-29f2a7a28f86",
            "amount": 7143,
            "card_brand": "visa",
            "created": "2023-03-20T10:35:59Z",
            "credit_card_expiration_date": "10/2026",
            "interval": "month",
            "is_cancelable": false,
            "is_modifiable": false,
            "last_payment_date": "2023-03-20T10:35:59Z",
            "last4": "7370",
            "next_payment_date": null,
            "payment_type": "credit_card",
            "provider_customer_id": "cus_7c78f63a-5fee-4989-9abe-5e47cc007825",
            "revenue_program": 1,
            "status": "canceled"
        },
        {
            "payment_provider_id": "sub_6c7fbe0e-95c7-4b19-b347-76c42026196a",
            "amount": 990,
            "card_brand": "mastercard",
            "created": "2023-08-01T04:51:49Z",
            "credit_card_expiration_date": "08/2026",
            "interval": "year",
            "is_cancelable": true,
            "is_modifiable": true,
            "last_payment_date": "2023-08-01T04:51:49Z",
            "last4": "9874",
            "next_payment_date": "2024-07-31T04:51:49Z",
            "payment_type": "credit_card",
            "provider_customer_id": "cus_792b0fba-40fe-4076-8f49-fa6de0bae504",
            "revenue_program": 1,
            "status": "paid"
        },
        {
            "payment_provider_id": "pi_81f01a88-cfd5-4c84-b470-e6e639331068",
            "amount": 4528,
            "card_brand": "visa",
            "created": "2023-07-11T14:04:24Z",
            "credit_card_expiration_date": "05/2028",
            "interval": "one_time",
            "is_cancelable": false,
            "is_modifiable": false,
            "last_payment_date": "2023-07-11T14:04:24Z",
            "last4": "6543",
            "next_payment_date": null,
            "payment_type": "credit_card",
            "provider_customer_id": "cus_72f806c1-ddd6-43f8-9c43-84cd1dd5107d",
            "revenue_program": 1,
            "status": "paid"
        },
        {
            "payment_provider_id": "pi_f1739a01-518f-4a7b-9fd5-1b0a018757a5",
            "amount": 3330,
            "card_brand": "visa",
            "created": "2023-01-15T11:50:40Z",
            "credit_card_expiration_date": "11/2027",
            "interval": "one_time",
            "is_cancelable": false,
            "is_modifiable": false,
            "last_payment_date": "2023-01-15T11:50:40Z",
            "last4": "9449",
            "next_payment_date": null,
            "payment_type": "credit_card",
            "provider_customer_id": "cus_e966364e-f9e4-41d2-b77e-3cbc2a564cd1",
            "revenue_program": 1,
            "status": "paid"
        }
    ],
    "count": 20,
    "next": "https://dev-4130.revengine-review.org/api/v1/contributors/1/contributions/?page=2",
    "previous": null
}
