{"count":18,"next":"http://localhost:8000/api/v1/contributions/?ordering=-last_payment_date%2C-modified%2Camount%2Ccontributor_email&page=2&page_size=10","previous":null,"results":[{"id":17,"contributor_email":"contributor@caktusgroup.com","created":"2021-06-18T13:52:51.075931Z","modified":"2021-06-21T16:21:42.402755Z","amount":1384,"currency":"usd","reason":"","interval":"o","payment_provider_used":"Stripe","payment_provider_data":null,"provider_payment_id":null,"provider_customer_id":null,"provider_payment_method_id":null,"last_payment_date":"2021-06-20T16:20:08.388855Z","bad_actor_score":null,"bad_actor_response":null,"flagged_date":null,"status":"pending","contributor":1,"donation_page":null,"organization":1},{"id":1,"contributor_email":"contributor@caktusgroup.com","created":"2021-06-15T16:17:38.189182Z","modified":"2021-06-21T16:21:42.411177Z","amount":1183,"currency":"usd","reason":"","interval":"o","payment_provider_used":"Stripe","payment_provider_data":null,"provider_payment_id":null,"provider_customer_id":null,"provider_payment_method_id":null,"last_payment_date":"2021-06-19T16:20:08.388855Z","bad_actor_score":null,"bad_actor_response":null,"flagged_date":null,"status":"pending","contributor":1,"donation_page":null,"organization":1},{"id":18,"contributor_email":"bar@bizz.com","created":"2021-06-18T13:52:51.819007Z","modified":"2021-06-21T16:21:42.414687Z","amount":1382,"currency":"usd","reason":"","interval":"o","payment_provider_used":"Stripe","payment_provider_data":null,"provider_payment_id":null,"provider_customer_id":null,"provider_payment_method_id":null,"last_payment_date":"2021-06-18T16:20:08.388855Z","bad_actor_score":null,"bad_actor_response":null,"flagged_date":null,"status":"pending","contributor":2,"donation_page":null,"organization":1},{"id":6,"contributor_email":"ar@bizz.com","created":"2021-06-18T13:52:44.795983Z","modified":"2021-06-21T16:21:42.418046Z","amount":1381,"currency":"usd","reason":"","interval":"o","payment_provider_used":"Stripe","payment_provider_data":null,"provider_payment_id":null,"provider_customer_id":null,"provider_payment_method_id":null,"last_payment_date":"2021-06-17T16:20:08.388855Z","bad_actor_score":null,"bad_actor_response":null,"flagged_date":null,"status":"pending","contributor":3,"donation_page":null,"organization":1},{"id":2,"contributor_email":"contributor@caktusgroup.com","created":"2021-06-15T16:17:57.052645Z","modified":"2021-06-21T16:21:42.421513Z","amount":1398,"currency":"usd","reason":"","interval":"o","payment_provider_used":"Stripe","payment_provider_data":null,"provider_payment_id":null,"provider_customer_id":null,"provider_payment_method_id":null,"last_payment_date":"2021-06-16T16:20:08.388855Z","bad_actor_score":null,"bad_actor_response":null,"flagged_date":null,"status":"pending","contributor":1,"donation_page":null,"organization":1},{"id":3,"contributor_email":"contributor@caktusgroup.com","created":"2021-06-18T13:52:40.484715Z","modified":"2021-06-21T16:21:42.424788Z","amount":1397,"currency":"usd","reason":"","interval":"o","payment_provider_used":"Stripe","payment_provider_data":null,"provider_payment_id":null,"provider_customer_id":null,"provider_payment_method_id":null,"last_payment_date":"2021-06-15T16:20:08.388855Z","bad_actor_score":null,"bad_actor_response":null,"flagged_date":null,"status":"pending","contributor":1,"donation_page":null,"organization":1},{"id":4,"contributor_email":"contributor@caktusgroup.com","created":"2021-06-18T13:52:43.602593Z","modified":"2021-06-21T16:21:42.427521Z","amount":1396,"currency":"usd","reason":"","interval":"o","payment_provider_used":"Stripe","payment_provider_data":null,"provider_payment_id":null,"provider_customer_id":null,"provider_payment_method_id":null,"last_payment_date":"2021-06-14T16:20:08.388855Z","bad_actor_score":null,"bad_actor_response":null,"flagged_date":null,"status":"pending","contributor":1,"donation_page":null,"organization":1},{"id":5,"contributor_email":"contributor@caktusgroup.com","created":"2021-06-18T13:52:44.195210Z","modified":"2021-06-21T16:21:42.429904Z","amount":1395,"currency":"usd","reason":"","interval":"o","payment_provider_used":"Stripe","payment_provider_data":null,"provider_payment_id":null,"provider_customer_id":null,"provider_payment_method_id":null,"last_payment_date":"2021-06-13T16:20:08.388855Z","bad_actor_score":null,"bad_actor_response":null,"flagged_date":null,"status":"pending","contributor":1,"donation_page":null,"organization":1},{"id":7,"contributor_email":"contributor@caktusgroup.com","created":"2021-06-18T13:52:45.401084Z","modified":"2021-06-21T16:21:42.431855Z","amount":1394,"currency":"usd","reason":"","interval":"o","payment_provider_used":"Stripe","payment_provider_data":null,"provider_payment_id":null,"provider_customer_id":null,"provider_payment_method_id":null,"last_payment_date":"2021-06-12T16:20:08.388855Z","bad_actor_score":null,"bad_actor_response":null,"flagged_date":null,"status":"pending","contributor":1,"donation_page":null,"organization":1},{"id":8,"contributor_email":"contributor@caktusgroup.com","created":"2021-06-18T13:52:45.997845Z","modified":"2021-06-21T16:21:42.433937Z","amount":1393,"currency":"usd","reason":"","interval":"o","payment_provider_used":"Stripe","payment_provider_data":null,"provider_payment_id":null,"provider_customer_id":null,"provider_payment_method_id":null,"last_payment_date":"2021-06-11T16:20:08.388855Z","bad_actor_score":null,"bad_actor_response":null,"flagged_date":null,"status":"pending","contributor":1,"donation_page":null,"organization":1}]}